4. Example Analysis • usmap
…
3. Where do Tornadoes Occur?

Does tornadoes more likely to occur at some states?

# Summarise number of tornadoes by state
tornadoes_st <- data %>%
  group_by(st) %>%
  summarise(value = n()) %>%
  arrange(desc(value))

# Print result
print(tornadoes_st)
#> # A tibble: 53 × 2
#>    st    value
#>    <chr> <int>
#>  1 TX     9265
#>  2 KS     4429
#>  3 OK     4144
#>  4 FL     3566
#>  5 NE     2993
#>  6 IA     2815
#>  7 IL     2716
#>  8 MS     2594
#>  9 AL     2456
#> 10 MO     2441
#> # ℹ 43 more rows
…
